digraph "Ball.cpp"
{
  edge [fontname="Helvetica",fontsize="10",labelfontname="Helvetica",labelfontsize="10"];
  node [fontname="Helvetica",fontsize="10",shape=record];
  Node0 [label="Ball.cpp",height=0.2,width=0.4,color="black", fillcolor="grey75", style="filled", fontcolor="black"];
  Node0 -> Node1 [color="midnightblue",fontsize="10",style="solid"];
  Node1 [label="Ball.h",height=0.2,width=0.4,color="black", fillcolor="white", style="filled",URL="$Ball_8h.html",tooltip="Header file for Ball.cpp. "];
}
